INDEX VERSION 1.131+/home/budiest93/Documents/personal/idempiere-5.1/.metadata/.plugins/org.eclipse.jdt.core
593454252.index
54197378.index
1021421918.index
1841307138.index
232497414.index
1439173494.index
2877306983.index
93097676.index
3611921793.index
1268370459.index
1533629737.index
653317378.index
514304541.index
2932904299.index
4190381558.index
3502216188.index
1568951536.index
3358933011.index
3097367404.index
1994506290.index
2814344519.index
1918282168.index
900057525.index
954358045.index
2900015323.index
418698801.index
2850283203.index
759441241.index
4119725715.index
4263866142.index
4125231712.index
142871272.index
1786285428.index
401673712.index
3157238986.index
3617508170.index
3657340069.index
2380774848.index
1974938142.index
3550775616.index
2686742226.index
1412123966.index
1086271378.index
779619198.index
1725479223.index
712457729.index
1834770500.index
3223649497.index
3689569492.index
1406597115.index
3307437942.index
3404412117.index
585254827.index
770084332.index
71729427.index
3326073970.index
762319796.index
1101757121.index
3743221597.index
3085842181.index
3489391308.index
608156124.index
444804761.index
2426828119.index
1748991309.index
518151062.index
3327273358.index
2036398409.index
3760682234.index
3200732789.index
3092864477.index
4035034097.index
3537733698.index
3316853054.index
1887440348.index
4287790833.index
1531081444.index
3252697468.index
3588299886.index
4057307110.index
704427461.index
4016398944.index
1813065195.index
3103699529.index
2953165762.index
2113266026.index
2658973744.index
54948740.index
2162114204.index
155497038.index
1098722820.index
1201402287.index
925109777.index
33763830.index
1962311683.index
460338250.index
1018490907.index
378194587.index
2694050592.index
2551338129.index
840315258.index
3335802528.index
3752987634.index
2495471605.index
1807827963.index
402419845.index
3988738172.index
3662666382.index
2923514680.index
3505919890.index
3397748758.index
3647707472.index
2327195011.index
4126560668.index
3202082990.index
4038350588.index
1538986049.index
2806040996.index
1091511501.index
1361971169.index
92119808.index
125890503.index
1922646145.index
2176759397.index
1145614706.index
1919172510.index
417843286.index
2993837536.index
1401480500.index
3227704835.index
3407153173.index
3823856992.index
1447566352.index
317836255.index
3001947655.index
499191837.index
1741904872.index
2990378144.index
2058778809.index
3515566291.index
2459536734.index
303508053.index
2471097340.index
1405183675.index
2725251530.index
3541289808.index
1404638177.index
2166799952.index
3606806918.index
1618473680.index
2702991658.index
963068793.index
4159895160.index
760533324.index
3466138199.index
1485996520.index
2324872319.index
1801467101.index
2227393354.index
4293759223.index
299773544.index
4051862487.index
4069440724.index
3701846203.index
4210702826.index
1236628411.index
1860853433.index
3757498276.index
3353887046.index
2423262028.index
1766172123.index
312718265.index
3195119698.index
3246063789.index
3649729724.index
2408858412.index
2364583785.index
2879312110.index
4196031079.index
1450557271.index
1292625713.index
221318162.index
2562555448.index
1535352357.index
315090533.index
613707298.index
135374867.index
2262934982.index
2633272538.index
3474578450.index
4068824691.index
3643420307.index
781583460.index
943888337.index
1801884452.index
3722985868.index
1957186414.index
1740195396.index
2777367304.index
1146040330.index
2836953722.index
3109950889.index
4122210847.index
996427641.index
366171595.index
1354099436.index
3621429707.index
1790615078.index
4154952556.index
1455346090.index
2330811974.index
433211541.index
254224229.index
1801478892.index
2686547764.index
2282829551.index
3712236310.index
3554416419.index
3736689940.index
2051099954.index
3908179373.index
3378696623.index
2072742612.index
1251313359.index
3289993298.index
1517114027.index
3315983112.index
2531934106.index
2309190827.index
3741051988.index
3872042280.index
3366985496.index
427337534.index
987314221.index
3454229856.index
918516788.index
3088937461.index
2494543828.index
1043704854.index
3229267564.index
3382799977.index
3012564039.index
3457100723.index
1565068144.index
2366341908.index
974422237.index
642967284.index
3158518165.index
4099815556.index
1062237802.index
2665007825.index
4107864713.index
2162676479.index
517188859.index
4089521031.index
