<?xml version="1.0" encoding="UTF-8"?>
<session version="1.0">
<refactoring comment="Rename package &apos;model&apos; to &apos;org.globalqss.model&apos;&#x0A;- Original project: &apos;org.adempiere.base&apos;&#x0A;- Original element: &apos;org.adempiere.base/src/model&apos;&#x0A;- Renamed element: &apos;org.adempiere.base/src/org.globalqss.model&apos;&#x0A;- Update references to refactored element&#x0A;- Update textual occurrences in comments and strings" description="Rename package &apos;model&apos;" flags="589830" hierarchical="false" id="org.eclipse.jdt.ui.rename.package" input="/src&lt;model" name="org.globalqss.model" qualified="false" references="true" stamp="1561555515217" textual="false" version="1.0"/>
</session>